<?xml version="1.0" encoding="UTF-8"?>
<robot generator="Robot 7.0.1 (Python 3.12.4 on win32)" generated="2024-11-19T01:33:14.994617" rpa="false" schemaversion="5">
<suite id="s1" name="Api test" source="C:\repo\RobotFrameWork\Api_tests\Api_test.robot">
<test id="s1-t1" name="Demo uno" line="16">
<kw name="Create Session" owner="RequestsLibrary">
<msg time="2024-11-19T01:33:16.227365" level="INFO">Creating Session using : alias=pagina_api, url=https://reqres.in/, headers={},                     cookies={}, auth=None, timeout=None, proxies=None, verify=False,                     debug=0 </msg>
<arg>pagina_api</arg>
<arg>${base}</arg>
<doc>Create Session: create a HTTP session to a server</doc>
<status status="PASS" start="2024-11-19T01:33:16.227365" elapsed="0.000000"/>
</kw>
<kw name="Get Request" owner="RequestsLibrary">
<msg time="2024-11-19T01:33:16.227365" level="WARN">Keyword 'RequestsLibrary.Get Request' is deprecated. Please use `GET On Session` instead.</msg>
<msg time="2024-11-19T01:33:16.496189" level="INFO">GET Request : url=https://reqres.in/api/users?page=2 
 path_url=/api/users?page=2 
 headers={'User-Agent': 'python-requests/2.32.3', 'Accept-Encoding': 'gzip, deflate', 'Accept': '*/*', 'Connection': 'keep-alive'} 
 body=None 
 </msg>
<msg time="2024-11-19T01:33:16.511935" level="INFO">GET Response : url=https://reqres.in/api/users?page=2 
 status=200, reason=OK 
 headers={'Date': 'Tue, 19 Nov 2024 06:33:16 GMT', 'Content-Type': 'application/json; charset=utf-8', 'Transfer-Encoding': 'chunked', 'Connection': 'keep-alive', 'Report-To': '{"group":"heroku-nel","max_age":3600,"endpoints":[{"url":"https://nel.heroku.com/reports?ts=1731986057&amp;sid=c4c9725f-1ab0-44d8-820f-430df2718e11&amp;s=u9nYpaorskOCYtF8VCgDko%2BK9UkGp5GmNP9GuxkqyjY%3D"}]}', 'Reporting-Endpoints': 'heroku-nel=https://nel.heroku.com/reports?ts=1731986057&amp;sid=c4c9725f-1ab0-44d8-820f-430df2718e11&amp;s=u9nYpaorskOCYtF8VCgDko%2BK9UkGp5GmNP9GuxkqyjY%3D', 'Nel': '{"report_to":"heroku-nel","max_age":3600,"success_fraction":0.005,"failure_fraction":0.05,"response_headers":["Via"]}', 'X-Powered-By': 'Express', 'Access-Control-Allow-Origin': '*', 'Etag': 'W/"440-ZjsmMKR8P3usr2uJZbOCGCxC3Uw"', 'Via': '1.1 vegur', 'Cache-Control': 'max-age=14400', 'CF-Cache-Status': 'HIT', 'Age': '372', 'Vary': 'Accept-Encoding', 'Server': 'cloudflare', 'CF-RAY': '8e4e2af5dba602f9-MIA', 'Content-Encoding': 'gzip', 'server-timing': 'cfL4;desc="?proto=TCP&amp;rtt=51484&amp;sent=5&amp;recv=6&amp;lost=0&amp;retrans=0&amp;sent_bytes=2836&amp;recv_bytes=775&amp;delivery_rate=83999&amp;cwnd=252&amp;unsent_bytes=0&amp;cid=a695762695903e5b&amp;ts=84&amp;x=0"'} 
 body={"page":2,"per_page":6,"total":12,"total_pages":2,"data":[{"id":7,"email":"michael.lawson@reqres.in","first_name":"Michael","last_name":"Lawson","avatar":"https://reqres.in/img/faces/7-image.jpg"},{"id":8,"email":"lindsay.ferguson@reqres.in","first_name":"Lindsay","last_name":"Ferguson","avatar":"https://reqres.in/img/faces/8-image.jpg"},{"id":9,"email":"tobias.funke@reqres.in","first_name":"Tobias","last_name":"Funke","avatar":"https://reqres.in/img/faces/9-image.jpg"},{"id":10,"email":"byron.fields@reqres.in","first_name":"Byron","last_name":"Fields","avatar":"https://reqres.in/img/faces/10-image.jpg"},{"id":11,"email":"george.edwards@reqres.in","first_name":"George","last_name":"Edwards","avatar":"https://reqres.in/img/faces/11-image.jpg"},{"id":12,"email":"rachel.howell@reqres.in","first_name":"Rachel","last_name":"Howell","avatar":"https://reqres.in/img/faces/12-image.jpg"}],"support":{"url":"https://contentcaddy.io?utm_source=reqres&amp;utm_medium=json&amp;utm_campaign=referral","text":"Tired of writing endless social media content? Let Content Caddy generate it for you."}} 
 </msg>
<msg time="2024-11-19T01:33:16.511935" level="INFO">C:\Users\af.castillo\AppData\Roaming\Python\Python312\site-packages\urllib3\connectionpool.py:1099: InsecureRequestWarning: Unverified HTTPS request is being made to host 'reqres.in'. Adding certificate verification is strongly advised. See: https://urllib3.readthedocs.io/en/latest/advanced-usage.html#tls-warnings
  warnings.warn(</msg>
<msg time="2024-11-19T01:33:16.513101" level="INFO">${response} = &lt;Response [200]&gt;</msg>
<var>${response}</var>
<arg>pagina_api</arg>
<arg>${uri}</arg>
<doc>*DEPRECATED* Please use `GET On Session` instead.</doc>
<status status="PASS" start="2024-11-19T01:33:16.227365" elapsed="0.285736"/>
</kw>
<kw name="Log To Console" owner="BuiltIn">
<arg>${response.status_code}</arg>
<doc>Logs the given message to the console.</doc>
<status status="PASS" start="2024-11-19T01:33:16.513101" elapsed="0.000000"/>
</kw>
<kw name="Log To Console" owner="BuiltIn">
<arg>${response.content}</arg>
<doc>Logs the given message to the console.</doc>
<status status="PASS" start="2024-11-19T01:33:16.513101" elapsed="0.000000"/>
</kw>
<kw name="Log To Console" owner="BuiltIn">
<arg>${response.headers}</arg>
<doc>Logs the given message to the console.</doc>
<status status="PASS" start="2024-11-19T01:33:16.513101" elapsed="0.000000"/>
</kw>
<doc>Pruebas Api Rest</doc>
<tag>test_get</tag>
<status status="PASS" start="2024-11-19T01:33:16.227365" elapsed="0.285736"/>
</test>
<doc>Api Rest</doc>
<status status="PASS" start="2024-11-19T01:33:14.994617" elapsed="1.518484"/>
</suite>
<statistics>
<total>
<stat pass="1" fail="0" skip="0">All Tests</stat>
</total>
<tag>
<stat pass="1" fail="0" skip="0">test_get</stat>
</tag>
<suite>
<stat pass="1" fail="0" skip="0" id="s1" name="Api test">Api test</stat>
</suite>
</statistics>
<errors>
<msg time="2024-11-19T01:33:16.227365" level="WARN">Keyword 'RequestsLibrary.Get Request' is deprecated. Please use `GET On Session` instead.</msg>
</errors>
</robot>
